Shuffle Example
…
Grouped Shuffling

Clearly there will be situations in which inter-variable dependencies
are key to our understanding of the data, and we may wish to preserve
the column metrics within strata. Such a situation is foreseen, and
‘shuffling’ can be performed within a grouped data set as easily as on
the whole data:

grouped_shuffle_pipe <- starwars |> 
  add_group(gender) |> 
  add_shuffle(species, homeworld, hair_color) |>
  add_ungroup()

apply_deident(starwars, grouped_shuffle_pipe)
#> # A tibble: 87 × 14
#>    name     height  mass hair_color skin_color eye_color birth_year sex   gender
#>    <chr>     <int> <dbl> <chr>      <chr>      <chr>          <dbl> <chr> <chr> 
#>  1 Luke Sk…    172    77 <NA>       fair       blue            19   male  mascu…
#>  2 C-3PO       167    75 blond      gold       yellow         112   none  mascu…
#>  3 R2-D2        96    32 auburn, g… white, bl… red             33   none  mascu…
#>  4 Darth V…    202   136 none       white      yellow          41.9 male  mascu…
#>  5 Leia Or…    150    49 none       light      brown           19   fema… femin…
#>  6 Owen La…    178   120 none       light      blue            52   male  mascu…
#>  7 Beru Wh…    165    75 white      light      blue            47   fema… femin…
#>  8 R5-D4        97    32 none       white, red red             NA   none  mascu…
#>  9 Biggs D…    183    84 none       light      brown           24   male  mascu…
#> 10 Obi-Wan…    182    77 brown      fair       blue-gray       57   male  mascu…
#> # ℹ 77 more rows
#> # ℹ 5 more variables: homeworld <chr>, species <chr>, films <list>,
#> #   vehicles <list>, starships <list>
